{
  "version": "0.2.3",
  "manifest": {
    "openApp": false,
    "store": {
      "param": {
        "paramName": {
          "type": "array"
        },
        "listMember": {
          "type": "object"
        }
      }
    },
    "function": {},
    "module": {},
    "permission": {},
    "filiot_auth": true,
    "theme": [],
    "lang": []
  },
  "preproccessing_with_splashscreen": {},
  "preproccessing": {},
  "welcome_screen": {
    "screen": [
      {
        "name": "main",
        "view": {
          "area": [
            {
              "x": 0,
              "y": 15,
              "width": 50,
              "height": 7.5,
              "type": "text",
              "fontSize": 24,
              "value": "Wellcome!",
              "text_style": {
                "color": "black",
                "fontWeight": "700",
                "textAlign": "center"
              },
              "onPress": {
                "type": "function",
                "name": "",
                "params": {
                  "event": "object"
                },
                "execute": [
                  {
                    "name": "wellcome.deactive",
                    "args": {}
                  }
                ]
              },
              "style": {
                "alignItems": "center"
              }
            }
          ]
        }
      }
    ]
  },
  "auth": {
    "type": "Stack",
    "screens": [
      {
        "name": "main",
        "lang": {
          "vi": {
            "placeholder_email": "Email"
          },
          "en": {
            "placeholder_email": "Email"
          }
        },
        "view": {
          "area": [
            {
              "x": 0,
              "y": 0,
              "width": 50,
              "height": 160,
              "type": "image",
              "value": "1",
              "image_style": {
                "width": "100%",
                "height": "100%",
                "resizeMode": "stretch"
              },
              "map_data": {
                "1": {
                  "uri": "https://image-app-public.s3.ap-southeast-1.amazonaws.com/huevtn/AC_080523/NENAC.png"
                }
              }
            },
            {
              "x": 0,
              "y": 30,
              "width": 50,
              "height": 10,
              "type": "text",
              "fontSize": 36,
              "value": "SignIn!",
              "text_style": {
                "color": "#ffffff",
                "fontWeight": "700",
                "textAlign": "center",
                "fontSize": 36
              },
              "onPress": {
                "type": "function",
                "name": "",
                "params": {
                  "event": "object"
                },
                "execute": [
                  {
                    "name": "fAuth.signIn",
                    "args": {}
                  }
                ]
              },
              "style": {
                "alignItems": "center",
                "justifyContent": "center",
                "backgroundColor": "red",
                "borderRadius": 16
              }
            },
            {
              "x": 27,
              "y": 65,
              "width": 15,
              "height": 6,
              "type": "text",
              "fontSize": 12,
              "value": "Forgot Password",
              "text_style": {
                "color": "blue",
                "fontWeight": "600",
                "textAlign": "center",
                "justifyContent": "center",
                "fontSize": 12
              },
              "event": { "onPress": [{ "name": "fAuth.signIn" }] },
              "style": {
                "alignItems": "flex-end",
                "justifyContent": "center",
                "backgroundColor": "red",
                "borderRadius": 16
              }
            }
          ]
        }
      }
    ]
  },
  "container": {
    "type": "Tab",
    "screens": [
      {
        "name": "Home",
        "icon": {
          "uri": "https://image-app-public.s3.ap-southeast-1.amazonaws.com/customapp/17fbb28b968/resource/Theme/WebP/active0.webp"
        },
        "focusIcon": {
          "uri": "https://image-app-public.s3.ap-southeast-1.amazonaws.com/customapp/17fbb28b968/resource/Theme/WebP/add.webp"
        },
        "screens": [
          {
            "name": "home3",
            "redux": {
              "abc": ["filiot", "abc"],
              "appCode": ["filiot", "env", "appCode"],
              "fcmToken": ["filiot", "env", "fcmToken"],
              "deviceUID": ["filiot", "env", "deviceUID"],
              "os": ["filiot", "env", "os"],
              "accessToken": ["filiot", "accessToken"]
            },
            "view": {
              "area": [
                {
                  "x": 10,
                  "y": 25,
                  "width": 50,
                  "height": 30,
                  "type": "text",
                  "fontSize": 24,
                  "value": "{{state.text}}",
                  "text_style": {
                    "color": "white",
                    "fontWeight": "700",
                    "textAlign": "center"
                  },
                  "style": {
                    "alignItems": "center"
                  }
                },
                {
                  "x": 10,
                  "y": 50,
                  "width": 50,
                  "height": 30,
                  "type": "text",
                  "fontSize": 24,
                  "value": "Press me",
                  "text_style": {
                    "color": "white",
                    "fontWeight": "700",
                    "textAlign": "center"
                  },
                  "style": {
                    "alignItems": "center"
                  },
                  "placeholder": "my textinput",
                  "onPress": {
                    "type": "function",
                    "params": {},
                    "execute": [
                      {
                        "name": "navigator.navigate",
                        "args": {
                          "screen": "home1",
                          "cb": {
                            "type": "function",
                            "params": {}
                          }
                        }
                      },
                      {}
                    ]
                  },
                  "onChangeText": {
                    "type": "function",
                    "params": {},
                    "execute": [
                      {
                        "name": "fRedux.updateObject",
                        "args": {
                          "path": "accessToken",
                          "data": "{{params}}"
                        }
                      }
                    ]
                  }
                },
                {
                  "x": 0,
                  "y": 15,
                  "width": 50,
                  "height": 150,
                  "type": "flatlist",
                  "fontSize": 24,
                  "value": "This is Home2 Screen",
                  "data": [
                    {
                      "name": "Toan",
                      "nickname": "Toan LK"
                    },
                    {
                      "name": "Toan 2",
                      "nickname": "Toan LK 2"
                    },
                    {
                      "name": "Toan 3",
                      "nickname": "Toan LK 3"
                    }
                  ],
                  "renderItem": {
                    "name": "itemmmmmmmmmmmm",
                    "view": {
                      "width": 50,
                      "height": 30,
                      "area": [
                        {
                          "x": 0,
                          "y": 15,
                          "width": 50,
                          "height": 7.5,
                          "type": "text",
                          "fontSize": 24,
                          "value": "{{item.name}} - {{item.nickname}}",
                          "renderItem": {},
                          "text_style": {
                            "color": "black",
                            "fontWeight": "700",
                            "textAlign": "center"
                          },
                          "style": {
                            "alignItems": "center"
                          },
                          "onPress": {
                            "type": "function",
                            "name": "",
                            "params": {
                              "event": "object"
                            },
                            "execute": [
                              {
                                "name": "state.updateState",
                                "args": {
                                  "path": ["text"],
                                  "data": "{{item.nickname}}"
                                }
                              }
                            ]
                          }
                        }
                      ]
                    }
                  },
                  "text_style": {
                    "color": "black",
                    "fontWeight": "700",
                    "textAlign": "center"
                  },
                  "style": {
                    "alignItems": "center"
                  }
                },
                {
                  "x": 0,
                  "y": 0,
                  "width": 50,
                  "height": 150,
                  "type": "scroll_view",
                  "areas": [
                    {
                      "area": [
                        {
                          "x": 0,
                          "y": 0,
                          "width": 50,
                          "height": 150,
                          "type": "text",
                          "fontSize": 24,
                          "value": "",
                          "text_style": {
                            "color": "#ffffff",
                            "fontWeight": "700",
                            "textAlign": "center"
                          },
                          "function": [
                            {
                              "name": "fAuth.logout",
                              "goto": "auto1"
                            }
                          ],
                          "style": {
                            "alignItems": "center",
                            "backgroundColor": "blue",
                            "borderRadius": 16
                          }
                        },
                        {
                          "x": 0,
                          "y": 15,
                          "width": 50,
                          "height": 150,
                          "type": "flatlist",
                          "fontSize": 24,
                          "value": "This is Home2 Screen",
                          "data": [
                            {
                              "name": "Toan",
                              "nickname": "Toan LK"
                            },
                            {
                              "name": "Toan 2",
                              "nickname": "Toan LK 2"
                            },
                            {
                              "name": "Toan 3",
                              "nickname": "Toan LK 3"
                            }
                          ],
                          "renderItem": {
                            "name": "itemmmmmmmmmmmm",
                            "view": {
                              "width": 50,
                              "height": 30,
                              "area": [
                                {
                                  "x": 0,
                                  "y": 15,
                                  "width": 50,
                                  "height": 7.5,
                                  "type": "text",
                                  "fontSize": 24,
                                  "value": "{{item.name}} - {{item.nickname}}",
                                  "renderItem": {},
                                  "text_style": {
                                    "color": "black",
                                    "fontWeight": "700",
                                    "textAlign": "center"
                                  },
                                  "style": {
                                    "alignItems": "center"
                                  },
                                  "onPress": {
                                    "type": "function",
                                    "name": "",
                                    "params": {
                                      "event": "object"
                                    },
                                    "execute": [
                                      {
                                        "name": "fRedux.updateObject",
                                        "args": {
                                          "path": "abc",
                                          "data": "{{item.nickname}}"
                                        }
                                      }
                                    ]
                                  }
                                }
                              ]
                            }
                          },
                          "text_style": {
                            "color": "black",
                            "fontWeight": "700",
                            "textAlign": "center"
                          },
                          "style": {
                            "alignItems": "center"
                          }
                        },
                        {
                          "x": 5,
                          "y": 5,
                          "width": 5,
                          "height": 7.5,
                          "type": "text",
                          "fontSize": 24,
                          "value": "",
                          "text_style": {
                            "color": "#ffffff",
                            "fontWeight": "700",
                            "textAlign": "center"
                          },
                          "function": [
                            {
                              "name": "fAuth.logout",
                              "goto": "auto1"
                            }
                          ],
                          "style": {
                            "alignItems": "center",
                            "backgroundColor": "white",
                            "borderRadius": 100
                          }
                        }
                      ],
                      "width": 50,
                      "height": 30,
                      "x": 0,
                      "y": 0
                    },
                    {
                      "area": [
                        {
                          "x": 0,
                          "y": 0,
                          "width": 50,
                          "height": 150,
                          "type": "text",
                          "fontSize": 24,
                          "value": "This is Auto2 Screen!!",
                          "text_style": {
                            "color": "#ffffff",
                            "fontWeight": "700",
                            "textAlign": "center"
                          },
                          "function": [
                            {
                              "name": "fAuth.logout",
                              "goto": "auto1"
                            }
                          ],
                          "style": {
                            "alignItems": "center",
                            "backgroundColor": "blue",
                            "borderRadius": 16
                          }
                        },
                        {
                          "x": 0,
                          "y": 15,
                          "width": 50,
                          "height": 120,
                          "type": "scroll_view",
                          "areas": [
                            {
                              "area": [
                                {
                                  "x": 3,
                                  "y": 0,
                                  "width": 44,
                                  "height": 30,
                                  "type": "text",
                                  "fontSize": 24,
                                  "value": "This is Auto2 Screen!!",
                                  "text_style": {
                                    "color": "#ffffff",
                                    "fontWeight": "700",
                                    "textAlign": "center"
                                  },
                                  "function": [
                                    {
                                      "name": "fAuth.logout",
                                      "goto": "auto1"
                                    }
                                  ],
                                  "style": {
                                    "alignItems": "center",
                                    "backgroundColor": "yellow",
                                    "borderRadius": 16
                                  }
                                },
                                {
                                  "x": 5,
                                  "y": 5,
                                  "width": 5,
                                  "height": 7.5,
                                  "type": "text",
                                  "fontSize": 24,
                                  "value": "",
                                  "text_style": {
                                    "color": "#ffffff",
                                    "fontWeight": "700",
                                    "textAlign": "center"
                                  },
                                  "function": [
                                    {
                                      "name": "fAuth.logout",
                                      "goto": "auto1"
                                    }
                                  ],
                                  "style": {
                                    "alignItems": "center",
                                    "backgroundColor": "white",
                                    "borderRadius": 100
                                  }
                                },
                                {
                                  "x": 3,
                                  "y": 32,
                                  "width": 44,
                                  "height": 30,
                                  "type": "text",
                                  "fontSize": 24,
                                  "value": "This is Auto2 Screen!!",
                                  "text_style": {
                                    "color": "#ffffff",
                                    "fontWeight": "700",
                                    "textAlign": "center"
                                  },
                                  "function": [
                                    {
                                      "name": "fAuth.logout",
                                      "goto": "auto1"
                                    }
                                  ],
                                  "style": {
                                    "alignItems": "center",
                                    "backgroundColor": "green",
                                    "borderRadius": 16
                                  }
                                },
                                {
                                  "x": 5,
                                  "y": 37,
                                  "width": 5,
                                  "height": 7.5,
                                  "type": "text",
                                  "fontSize": 24,
                                  "value": "",
                                  "text_style": {
                                    "color": "#ffffff",
                                    "fontWeight": "700",
                                    "textAlign": "center"
                                  },
                                  "function": [
                                    {
                                      "name": "fAuth.logout",
                                      "goto": "auto1"
                                    }
                                  ],
                                  "style": {
                                    "alignItems": "center",
                                    "backgroundColor": "white",
                                    "borderRadius": 100
                                  }
                                }
                              ],
                              "width": 50,
                              "height": 30,
                              "x": 0,
                              "y": 0
                            },
                            {
                              "area": [
                                {
                                  "x": 3,
                                  "y": 0,
                                  "width": 44,
                                  "height": 90,
                                  "type": "text",
                                  "fontSize": 24,
                                  "value": "This is Auto2 Screen!!",
                                  "text_style": {
                                    "color": "#ffffff",
                                    "fontWeight": "700",
                                    "textAlign": "center"
                                  },
                                  "function": [
                                    {
                                      "name": "fAuth.logout",
                                      "goto": "auto1"
                                    }
                                  ],
                                  "style": {
                                    "alignItems": "center",
                                    "backgroundColor": "red",
                                    "borderRadius": 16
                                  }
                                }
                              ],
                              "width": 50,
                              "height": 90,
                              "x": 0,
                              "y": 0
                            }
                          ],
                          "horizontal": false,
                          "pagingEnabled": true,
                          "showsVerticalScrollIndicator": false,
                          "showsHorizontalScrollIndicator": false
                        }
                      ],
                      "width": 50,
                      "height": 90,
                      "x": 0,
                      "y": 0
                    },
                    {
                      "area": [
                        {
                          "x": 0,
                          "y": 0,
                          "width": 50,
                          "height": 150,
                          "type": "text",
                          "fontSize": 24,
                          "value": "This is Auto2 Screen!!",
                          "text_style": {
                            "color": "#ffffff",
                            "fontWeight": "700",
                            "textAlign": "center"
                          },
                          "function": [
                            {
                              "name": "fAuth.logout",
                              "goto": "auto1"
                            }
                          ],
                          "style": {
                            "alignItems": "center",
                            "backgroundColor": "blue",
                            "borderRadius": 16
                          }
                        },
                        {
                          "x": 0,
                          "y": 15,
                          "width": 50,
                          "height": 120,
                          "type": "scroll_view",
                          "areas": [
                            {
                              "area": [
                                {
                                  "x": 0,
                                  "y": 0,
                                  "width": 50,
                                  "height": 150,
                                  "type": "list",
                                  "fontSize": 24,
                                  "value": "This is Home2 Screen",
                                  "data": [
                                    {
                                      "name": "Toan 1",
                                      "nickname": "Toan LK 1"
                                    },
                                    {
                                      "name": "Toan 2",
                                      "nickname": "Toan LK 2"
                                    },
                                    {
                                      "name": "Toan 3 ",
                                      "nickname": "Toan LK 3"
                                    },
                                    {
                                      "name": "Toan 4 ",
                                      "nickname": "Toan LK 4"
                                    },
                                    {
                                      "name": "Toan 5",
                                      "nickname": "Toan LK 5"
                                    },
                                    {
                                      "name": "Toan 6",
                                      "nickname": "Toan LK 6"
                                    },
                                    {
                                      "name": "Toan 7",
                                      "nickname": "Toan LK 7"
                                    }
                                  ],
                                  "renderItem": {
                                    "name": "itemmmmmmmmmmmm",
                                    "view": {
                                      "width": 50,
                                      "height": 30,
                                      "area": [
                                        {
                                          "x": 0,
                                          "y": 15,
                                          "width": 50,
                                          "height": 7.5,
                                          "type": "text",
                                          "fontSize": 24,
                                          "value": "{{item.name}} - {{item.nickname}}",
                                          "renderItem": {},
                                          "text_style": {
                                            "color": "black",
                                            "fontWeight": "700",
                                            "textAlign": "center"
                                          },
                                          "style": {
                                            "alignItems": "center"
                                          },
                                          "onPress": {
                                            "type": "function",
                                            "name": "",
                                            "params": {
                                              "event": "object"
                                            },
                                            "execute": [
                                              {
                                                "name": "REDUX_UPDATE",
                                                "args": {
                                                  "path": "abc",
                                                  "data": "{{item.nickname}}"
                                                }
                                              }
                                            ]
                                          }
                                        }
                                      ]
                                    }
                                  },
                                  "text_style": {
                                    "color": "black",
                                    "fontWeight": "700",
                                    "textAlign": "center"
                                  },
                                  "style": {
                                    "alignItems": "center"
                                  }
                                }
                              ],
                              "width": 50,
                              "height": 150,
                              "x": 0,
                              "y": 0
                            },
                            {
                              "area": [
                                {
                                  "x": 3,
                                  "y": 0,
                                  "width": 44,
                                  "height": 90,
                                  "type": "text",
                                  "fontSize": 24,
                                  "value": "This is Auto2 Scree12222n!!",
                                  "text_style": {
                                    "color": "#ffffff",
                                    "fontWeight": "700",
                                    "textAlign": "center"
                                  },
                                  "event": {
                                    "onPress": [
                                      {
                                        "name": "fAuth.logout"
                                      }
                                    ]
                                  },
                                  "function": [
                                    {
                                      "name": "fAuth.logout",
                                      "goto": "auto1"
                                    }
                                  ],
                                  "style": {
                                    "alignItems": "center",
                                    "justifyContent": "center",
                                    "backgroundColor": "red",
                                    "borderRadius": 16
                                  }
                                }
                              ],
                              "width": 50,
                              "height": 90,
                              "x": 0,
                              "y": 0
                            }
                          ],
                          "horizontal": false,
                          "pagingEnabled": false,
                          "showsVerticalScrollIndicator": false,
                          "showsHorizontalScrollIndicator": false,
                          "style": { "backgroundColor": "red" }
                        }
                      ],
                      "width": 50,
                      "height": 90,
                      "x": 0,
                      "y": 0
                    }
                  ],
                  "horizontal": true,
                  "pagingEnabled": true,
                  "showsVerticalScrollIndicator": false,
                  "showsHorizontalScrollIndicator": false,
                  "style": { "backgroundColor": "red" }
                }
              ]
            }
          },
          {
            "name": "home1",
            "redux": {
              "data": "FILIOT_G.data",
              "abc": ["filiot", "abc"]
            },
            "view": {
              "area": [
                {
                  "x": 0,
                  "y": 0,
                  "width": 50,
                  "height": 50,
                  "type": "text",
                  "fontSize": 24,
                  "value": "123",
                  "text_style": {
                    "color": "black",
                    "fontWeight": "700",
                    "textAlign": "center"
                  },
                  "onPress": {
                    "type": "function",
                    "name": "",
                    "params": {
                      "event": "object"
                    },
                    "execute": [
                      {
                        "name": "STATE_UPDATE",
                        "args": {
                          "path": ["text"],
                          "data": "8888"
                        }
                      },
                      {
                        "name": "NAVIGATOR_NAVIGATE",
                        "args": {
                          "screen": "home2"
                        }
                      },
                      {
                        "name": "API_CALL",
                        "args": {
                          "requireAuth": true,
                          "config": {
                            "url": "https://api.filiot.com/casa/v1/auth/sign-in",

                            "method": "post",
                            "data": {
                              "email": "khangtm1.work@gmail.com",
                              "password": "Khangtm!1234",
                              "appCode": "17fbb28b968"
                            }
                          },
                          "responseDataType": "json",
                          "callBack": {
                            "status_200": {
                              "type": "function",
                              "params": {
                                "response": "object"
                              },
                              "execute": [
                                {
                                  "name": "NAVIGATOR_NAVIGATE",
                                  "args": {
                                    "screen": "{{response.abc}}"
                                  }
                                },
                                {
                                  "name": "REDUX_UPDATE",
                                  "args": {
                                    "path": "abc",
                                    "data": "{{params.accessToken}}"
                                  }
                                }
                              ]
                            },
                            "status_404": "execute 404",
                            "orther_error": "execute orther_error"
                          }
                        }
                      }
                    ]
                  },
                  "modal_view": {
                    "x": 10,
                    "y": 20,
                    "width": 30,
                    "height": 40,
                    "area": []
                  },
                  "function": [
                    {
                      "name": "navigate",
                      "goto": "home2"
                    }
                  ],
                  "style": {
                    "alignItems": "center"
                  }
                },
                {
                  "isConditionComponent": true,
                  "map_item": [
                    {
                      "if": {
                        "condition": "and",
                        "rules": [
                          {
                            "field": {
                              "store": "",
                              "param": "{{}}"
                            },
                            "operator": "==",
                            "value": 8
                          },
                          {
                            "condition": "or",
                            "rules": [
                              {
                                "field": {
                                  "store": "",
                                  "param": ""
                                },
                                "operator": "==",
                                "value": "male"
                              }
                            ]
                          }
                        ]
                      },
                      "then": {
                        "area": []
                      },
                      "else": {
                        "area": []
                      }
                    },
                    {
                      "default": true,
                      "area": []
                    }
                  ]
                }
              ]
            }
          },
          {
            "name": "home2",
            "view": {
              "area": [
                {
                  "x": 0,
                  "y": 15,
                  "width": 50,
                  "height": 7.5,
                  "type": "text",
                  "fontSize": 24,
                  "value": "This is Home2 Screen",
                  "text_style": {
                    "color": "black",
                    "fontWeight": "700",
                    "textAlign": "center"
                  },
                  "style": {
                    "alignItems": "center"
                  }
                }
              ]
            }
          }
        ]
      },
      {
        "name": "Setting1",
        "icon": {
          "uri": "https://image-app-public.s3.ap-southeast-1.amazonaws.com/customapp/17fbb28b968/resource/Theme/WebP/active0.webp"
        },
        "focusIcon": {
          "uri": "https://image-app-public.s3.ap-southeast-1.amazonaws.com/customapp/17fbb28b968/resource/Theme/WebP/add.webp"
        },
        "screens": [
          {
            "name": "setting2",
            "view": {
              "area": [
                {
                  "x": 0,
                  "y": 0,
                  "width": 50,
                  "height": 160,
                  "type": "image",
                  "value": "1",
                  "image_style": {
                    "width": "100%",
                    "height": "100%",
                    "resizeMode": "stretch"
                  },
                  "map_data": {
                    "1": {
                      "uri": "https://image-app-public.s3.ap-southeast-1.amazonaws.com/huevtn/AC_080523/NENAC.png"
                    }
                  }
                },
                {
                  "x": 8,
                  "y": 20,
                  "width": 34,
                  "height": 48,
                  "type": "text",
                  "value": "",
                  "style": {
                    "backgroundColor": "#ffffff",
                    "borderRadius": 24
                  }
                },
                {
                  "isConditionComponent": true,
                  "value": ["mode"],
                  "map_item": [
                    {
                      "from": 0,
                      "to": 3,
                      "item": {
                        "x": 0,
                        "y": 21,
                        "width": 50,
                        "height": 50,
                        "type": "view",
                        "value": ["temp"],
                        "cp": "temperature_info",
                        "values": [
                          {
                            "state": "temp",
                            "map_to_props": ["temp"]
                          }
                        ],
                        "param": {
                          "min": 16,
                          "max": 30,
                          "start_point": -120,
                          "end_point": 120
                        }
                      }
                    },
                    {
                      "value": 4,
                      "item": {
                        "x": 9,
                        "y": 24,
                        "width": 32,
                        "height": 40,
                        "type": "image",
                        "value": ["fan_speed"],
                        "image_style": {
                          "width": "100%",
                          "height": "100%",
                          "resizeMode": "stretch"
                        },
                        "map_data": {
                          "0": {
                            "uri": "https://image-app-public.s3.ap-southeast-1.amazonaws.com/huevtn/AC_080523/gif/fan_speed_1.gif"
                          },
                          "1": {
                            "uri": "https://image-app-public.s3.ap-southeast-1.amazonaws.com/huevtn/AC_080523/gif/fan_speed_1.gif"
                          },
                          "2": {
                            "uri": "https://image-app-public.s3.ap-southeast-1.amazonaws.com/huevtn/AC_080523/gif/fan_speed_2.gif"
                          },
                          "3": {
                            "uri": "https://image-app-public.s3.ap-southeast-1.amazonaws.com/huevtn/AC_080523/gif/fan_speed_3.gif"
                          },
                          "default": {
                            "uri": "https://image-app-public.s3.ap-southeast-1.amazonaws.com/huevtn/AC_080523/gif/fan_speed_1.gif"
                          }
                        }
                      }
                    },
                    {
                      "isDefault": true,
                      "item": {
                        "x": 0,
                        "y": 21,
                        "width": 50,
                        "height": 50,
                        "type": "view",
                        "value": ["temp"],
                        "cp": "temperature_info",
                        "values": [
                          {
                            "state": "temp",
                            "map_to_props": ["temp"]
                          }
                        ],
                        "param": {
                          "min": 16,
                          "max": 30,
                          "start_point": 120,
                          "end_point": 257
                        }
                      }
                    }
                  ]
                },
                {
                  "isConditionComponent": true,
                  "value": ["mode"],
                  "map_item": [
                    {
                      "from": 0,
                      "to": 4,
                      "item": {
                        "x": 21,
                        "y": 52,
                        "width": 8,
                        "height": 4.5,
                        "type": "image",
                        "value": "1",
                        "image_style": {
                          "width": "100%",
                          "height": "100%",
                          "resizeMode": "stretch"
                        },
                        "map_data": {
                          "1": {
                            "uri": "https://image-app-public.s3.ap-southeast-1.amazonaws.com/AC_V2/MODE/mini_bgr.png"
                          }
                        }
                      }
                    }
                  ]
                },
                {
                  "isConditionComponent": true,
                  "value": ["mode"],
                  "map_item": [
                    {
                      "from": 0,
                      "to": 4,
                      "item": {
                        "x": 21.7,
                        "y": 52.9,
                        "width": 2.5,
                        "height": 2.5,
                        "type": "image",
                        "value": ["fan_speed"],
                        "image_style": {
                          "width": "100%",
                          "height": "100%"
                        },
                        "map_data": {
                          "0": {
                            "uri": "https://image-app-public.s3.ap-southeast-1.amazonaws.com/huevtn/AC_080523/transparent+background/Speed_1_trans.png"
                          },
                          "1": {
                            "uri": "https://image-app-public.s3.ap-southeast-1.amazonaws.com/huevtn/AC_080523/transparent+background/Speed_2_trans.png"
                          },
                          "2": {
                            "uri": "https://image-app-public.s3.ap-southeast-1.amazonaws.com/huevtn/AC_080523/transparent+background/Speed_3_trans.png"
                          },
                          "3": {
                            "uri": "https://image-app-public.s3.ap-southeast-1.amazonaws.com/huevtn/AC_080523/transparent+background/AUTO_MODE_WHITE_TRANS.png"
                          },
                          "default": {
                            "uri": "https://image-app-public.s3.ap-southeast-1.amazonaws.com/huevtn/AC_080523/transparent+background/AUTO_MODE_WHITE_TRANS.png"
                          }
                        }
                      }
                    }
                  ]
                },
                {
                  "isConditionComponent": true,
                  "value": ["mode"],
                  "map_item": [
                    {
                      "from": 0,
                      "to": 4,
                      "item": {
                        "x": 25.8,
                        "y": 52.9,
                        "width": 2.5,
                        "height": 2.5,
                        "type": "image",
                        "value": ["mode"],
                        "image_style": {
                          "width": "100%",
                          "height": "100%"
                        },
                        "map_data": {
                          "0": {
                            "uri": "https://image-app-public.s3.ap-southeast-1.amazonaws.com/huevtn/AC_080523/transparent+background/COOL_TRANS.png"
                          },
                          "1": {
                            "uri": "https://image-app-public.s3.ap-southeast-1.amazonaws.com/huevtn/AC_080523/transparent+background/DRY_WHITE_TRANS.png"
                          },
                          "3": {
                            "uri": "https://image-app-public.s3.ap-southeast-1.amazonaws.com/huevtn/AC_080523/transparent+background/HOT_WHITE_TRANS.png"
                          },
                          "4": {
                            "uri": "https://image-app-public.s3.ap-southeast-1.amazonaws.com/huevtn/AC_080523/transparent+background/FAN_WHITE_TRANS.png"
                          },
                          "default": {
                            "uri": "https://image-app-public.s3.ap-southeast-1.amazonaws.com/huevtn/AC_080523/transparent+background/FAN_WHITE_TRANS.png"
                          }
                        }
                      }
                    }
                  ]
                },
                {
                  "x": 4,
                  "y": 90,
                  "width": 12,
                  "height": 15,
                  "type": "image",
                  "value": ["temp"],
                  "image_style": {
                    "width": "100%",
                    "height": "100%"
                  },
                  "map_data": {
                    "default": {
                      "uri": "https://image-app-public.s3.ap-southeast-1.amazonaws.com/huevtn/AC_080523/DOWN.png"
                    }
                  },
                  "function": {
                    "name": "nextStepValue",
                    "step": -1
                  }
                },
                {
                  "x": 34,
                  "y": 90,
                  "width": 12,
                  "height": 15,
                  "type": "image",
                  "value": ["temp"],
                  "image_style": {
                    "width": "100%",
                    "height": "100%"
                  },
                  "map_data": {
                    "default": {
                      "uri": "https://image-app-public.s3.ap-southeast-1.amazonaws.com/huevtn/AC_080523/UP.png"
                    }
                  },
                  "function": {
                    "name": "nextStepValue",
                    "step": 1
                  }
                },
                {
                  "x": 18,
                  "y": 89,
                  "width": 14,
                  "height": 17,
                  "type": "image",
                  "value": ["on_off"],
                  "image_style": {
                    "width": "100%",
                    "height": "100%"
                  },
                  "style": {
                    "alignItems": "flex-end"
                  },
                  "data_type": "boolean",
                  "map_data": {
                    "true": {
                      "uri": "https://image-app-public.s3.ap-southeast-1.amazonaws.com/huevtn/AC_080523/ON.png"
                    },
                    "false": {
                      "uri": "https://image-app-public.s3.ap-southeast-1.amazonaws.com/huevtn/AC_080523/POWER_OFF.png"
                    },
                    "default": {
                      "uri": "https://image-app-public.s3.ap-southeast-1.amazonaws.com/huevtn/AC_080523/POWER_OFF.png"
                    }
                  },
                  "event": {
                    "onPress": [
                      {
                        "name": "fAPI.call",
                        "params": {
                          "requireAuth": true,
                          "config": {
                            "url": "https://api.filiot.com/casa/v1/auth/sign-in",

                            "method": "post",
                            "data": {
                              "email": "khangtm1.work@gmail.com",
                              "password": "Khangtm!1234",
                              "appCode": "17fbb28b968"
                            }
                          },
                          "responseDataType": "json",
                          "callBack": {
                            "status_200": [
                              {
                                "name": "fRedux.updateObject",
                                "params": {
                                  "store": "FILIOT_G",
                                  "object_name": "data",
                                  "data": "tmp.data",
                                  "callBack": {}
                                }
                              }
                            ],
                            "status_404": "execute 404",
                            "orther_error": "execute orther_error"
                          }
                        }
                      }
                    ],
                    "onLongPress": []
                  },
                  "function": {
                    "name": "updateState"
                  }
                },
                {
                  "x": 4,
                  "y": 116,
                  "width": 12,
                  "height": 15,
                  "type": "image",
                  "value": ["fan_speed"],
                  "map_data": {
                    "0": {
                      "uri": "https://image-app-public.s3.ap-southeast-1.amazonaws.com/huevtn/AC_080523/FAN_1.png"
                    },
                    "1": {
                      "uri": "https://image-app-public.s3.ap-southeast-1.amazonaws.com/huevtn/AC_080523/FAN_2.png"
                    },
                    "2": {
                      "uri": "https://image-app-public.s3.ap-southeast-1.amazonaws.com/huevtn/AC_080523/FAN_3.png"
                    },
                    "3": {
                      "uri": "https://image-app-public.s3.ap-southeast-1.amazonaws.com/huevtn/AC_080523/AUTO.png"
                    },
                    "default": {
                      "uri": "https://image-app-public.s3.ap-southeast-1.amazonaws.com/huevtn/AC_080523/AUTO.png"
                    }
                  },
                  "image_style": {
                    "width": "100%",
                    "height": "100%"
                  },
                  "data_type": "number",
                  "function": {
                    "name": "updateState"
                  }
                },
                {
                  "x": 34,
                  "y": 116,
                  "width": 12,
                  "height": 15,
                  "type": "image",
                  "value": ["swing"],
                  "map_data": {
                    "0": {
                      "uri": "https://image-app-public.s3.ap-southeast-1.amazonaws.com/huevtn/AC_080523/SWING_off.png"
                    },
                    "1": {
                      "uri": "https://image-app-public.s3.ap-southeast-1.amazonaws.com/huevtn/AC_080523/SWING_ON.png"
                    },
                    "default": {
                      "uri": "https://image-app-public.s3.ap-southeast-1.amazonaws.com/huevtn/AC_080523/SWING_ON.png"
                    }
                  },
                  "image_style": {
                    "width": "100%",
                    "height": "100%"
                  },
                  "data_type": "number",
                  "function": {
                    "name": "updateState"
                  }
                },
                {
                  "x": 19,
                  "y": 116,
                  "width": 12,
                  "height": 15,
                  "type": "image",
                  "horizontal": true,
                  "value": ["mode"],
                  "map_data": {
                    "0": {
                      "uri": "https://image-app-public.s3.ap-southeast-1.amazonaws.com/huevtn/AC_080523/COOL.png"
                    },
                    "1": {
                      "uri": "https://image-app-public.s3.ap-southeast-1.amazonaws.com/huevtn/AC_080523/DRY.png"
                    },
                    "3": {
                      "uri": "https://image-app-public.s3.ap-southeast-1.amazonaws.com/huevtn/AC_080523/HOT.png"
                    },
                    "4": {
                      "uri": "https://image-app-public.s3.ap-southeast-1.amazonaws.com/huevtn/AC_080523/FAN.png"
                    },
                    "default": {
                      "uri": "https://image-app-public.s3.ap-southeast-1.amazonaws.com/huevtn/AC_080523/FAN.png"
                    }
                  },
                  "image_style": {
                    "width": "100%",
                    "height": "100%"
                  },
                  "data_type": "number",
                  "function": {
                    "name": "updateState"
                  }
                }
              ]
            }
          },
          {
            "name": "setting1",
            "view": {
              "area": [
                {
                  "x": 0,
                  "y": 15,
                  "width": 50,
                  "height": 7.5,
                  "type": "text",
                  "fontSize": 24,
                  "value": "This is Setting1 Screen!",
                  "text_style": {
                    "color": "black",
                    "fontWeight": "700",
                    "textAlign": "center"
                  },
                  "event": {
                    "onPress": [
                      {
                        "name": "fAPI.call",
                        "params": {
                          "requireAuth": true,
                          "config": {
                            "url": "https://image-app-public.s3.ap-southeast-1.amazonaws.com/customapp/17fbb28b968/v1.0.7/favourite/banner.json",
                            "method": "get",
                            "data": {
                              "email": "khangtm1.work@gmail.com",
                              "password": "Khangtm!1234",
                              "appCode": "17fbb28b968"
                            },
                            "headers": {}
                          },
                          "responseDataType": "json",
                          "callBack": {
                            "status_200": [
                              {
                                "name": "fRedux.updateObject",
                                "params": {
                                  "store": "FILIOT_G",
                                  "object_name": "data",
                                  "data": "tmp.data",
                                  "callBack": {}
                                }
                              }
                            ],
                            "status_404": "execute 404",
                            "orther_error": "execute orther_error"
                          }
                        }
                      }
                    ],
                    "onLongPress": []
                  },
                  "function": [
                    {
                      "name": "navigate",
                      "goto": "setting2"
                    }
                  ],
                  "style": {
                    "alignItems": "center"
                  }
                }
              ]
            }
          }
        ]
      },
      {
        "name": "Automation",
        "icon": {
          "uri": "https://image-app-public.s3.ap-southeast-1.amazonaws.com/customapp/17fbb28b968/resource/Theme/WebP/active0.webp"
        },
        "focusIcon": {
          "uri": "https://image-app-public.s3.ap-southeast-1.amazonaws.com/customapp/17fbb28b968/resource/Theme/WebP/add.webp"
        },
        "screens": [
          {
            "name": "auto1",
            "view": {
              "area": [
                {
                  "x": 0,
                  "y": 0,
                  "width": 50,
                  "height": 160,
                  "type": "image",
                  "value": "1",
                  "image_style": {
                    "width": "100%",
                    "height": "100%",
                    "resizeMode": "stretch"
                  },
                  "map_data": {
                    "1": {
                      "uri": "https://image-app-public.s3.ap-southeast-1.amazonaws.com/huevtn/AC_080523/NENAC.png"
                    }
                  }
                },
                {
                  "x": 0,
                  "y": 15,
                  "width": 50,
                  "height": 7.58,
                  "type": "text",
                  "fontSize": 24,
                  "value": "Logout",
                  "text_style": {
                    "color": "#ffffff",
                    "fontWeight": "700",
                    "textAlign": "center"
                  },
                  "function": [
                    {
                      "name": "navigate",
                      "goto": "auto2"
                    }
                  ],
                  "style": {
                    "alignItems": "center"
                  }
                }
              ]
            }
          },
          {
            "name": "auto2",
            "view": {
              "area": [
                {
                  "x": 0,
                  "y": 15,
                  "width": 50,
                  "height": 7.5,
                  "type": "text",
                  "fontSize": 24,
                  "value": "This is Auto2 Screen!!",
                  "text_style": {
                    "color": "#ffffff",
                    "fontWeight": "700",
                    "textAlign": "center"
                  },
                  "function": [
                    {
                      "name": "fAuth.logout",
                      "goto": "auto1"
                    }
                  ],
                  "style": {
                    "alignItems": "center"
                  }
                }
              ]
            }
          }
        ]
      }
    ]
  }
}
